{
  "header": {
    "keySignatures": [
      {
        "key": "C",
        "scale": "major",
        "ticks": 0
      }
    ],
    "meta": [],
    "name": "M15TIP",
    "ppq": 960,
    "tempos": [
      {
        "bpm": 50,
        "ticks": 0
      }
    ],
    "timeSignatures": [
      {
        "ticks": 0,
        "timeSignature": [
          3,
          4
        ],
        "measures": 0
      }
    ]
  },
  "tracks": [
    {
      "channel": 0,
      "controlChanges": {
        "7": [
          {
            "number": 7,
            "ticks": 0,
            "time": 0,
            "value": 0.7874015748031497
          }
        ],
        "10": [
          {
            "number": 10,
            "ticks": 0,
            "time": 0,
            "value": 0.5039370078740157
          }
        ],
        "64": [
          {
            "number": 64,
            "ticks": 0,
            "time": 0,
            "value": 0
          }
        ],
        "91": [
          {
            "number": 91,
            "ticks": 0,
            "time": 0,
            "value": 0.3779527559055118
          }
        ],
        "121": [
          {
            "number": 121,
            "ticks": 0,
            "time": 0,
            "value": 0
          }
        ]
      },
      "pitchBends": [],
      "instrument": {
        "family": "piano",
        "name": "acoustic grand piano",
        "number": 0
      },
      "name": "Acoustic Guitar",
      "notes": [
        {
          "duration": 1.2,
          "durationTicks": 960,
          "midi": 55,
          "name": "G3",
          "ticks": 0,
          "time": 0,
          "velocity": 0.5511811023622047
        },
        {
          "duration": 1.2,
          "durationTicks": 960,
          "midi": 60,
          "name": "C4",
          "ticks": 960,
          "time": 1.2,
          "velocity": 0.6850393700787402
        },
        {
          "duration": 1.1999999999999997,
          "durationTicks": 960,
          "midi": 52,
          "name": "E3",
          "ticks": 1920,
          "time": 2.4,
          "velocity": 0.5826771653543307
        },
        {
          "duration": 2.4000000000000004,
          "durationTicks": 1920,
          "midi": 55,
          "name": "G3",
          "ticks": 2880,
          "time": 3.5999999999999996,
          "velocity": 0.6377952755905512
        },
        {
          "duration": 0.5999999999999996,
          "durationTicks": 480,
          "midi": 48,
          "name": "C3",
          "ticks": 4800,
          "time": 6,
          "velocity": 0.5275590551181102
        },
        {
          "duration": 0.5999999999999996,
          "durationTicks": 480,
          "midi": 48,
          "name": "C3",
          "ticks": 5280,
          "time": 6.6,
          "velocity": 0.5354330708661418
        },
        {
          "duration": 1.200000000000001,
          "durationTicks": 960,
          "midi": 52,
          "name": "E3",
          "ticks": 5760,
          "time": 7.199999999999999,
          "velocity": 0.6377952755905512
        },
        {
          "duration": 1.1999999999999993,
          "durationTicks": 960,
          "midi": 48,
          "name": "C3",
          "ticks": 6720,
          "time": 8.4,
          "velocity": 0.5826771653543307
        },
        {
          "duration": 1.1999999999999993,
          "durationTicks": 960,
          "midi": 60,
          "name": "C4",
          "ticks": 7680,
          "time": 9.6,
          "velocity": 0.7322834645669292
        },
        {
          "duration": 2.4000000000000004,
          "durationTicks": 1920,
          "midi": 55,
          "name": "G3",
          "ticks": 8640,
          "time": 10.799999999999999,
          "velocity": 0.5748031496062992
        },
        {
          "duration": 0.5999999999999996,
          "durationTicks": 480,
          "midi": 52,
          "name": "E3",
          "ticks": 10560,
          "time": 13.2,
          "velocity": 0.5984251968503937
        },
        {
          "duration": 0.5999999999999996,
          "durationTicks": 480,
          "midi": 48,
          "name": "C3",
          "ticks": 11040,
          "time": 13.799999999999999,
          "velocity": 0.5905511811023622
        },
        {
          "duration": 1.200000000000001,
          "durationTicks": 960,
          "midi": 52,
          "name": "E3",
          "ticks": 11520,
          "time": 14.399999999999999,
          "velocity": 0.6299212598425197
        },
        {
          "duration": 1.200000000000001,
          "durationTicks": 960,
          "midi": 60,
          "name": "C4",
          "ticks": 12480,
          "time": 15.6,
          "velocity": 0.7401574803149606
        },
        {
          "duration": 1.1999999999999993,
          "durationTicks": 960,
          "midi": 52,
          "name": "E3",
          "ticks": 13440,
          "time": 16.8,
          "velocity": 0.5511811023622047
        },
        {
          "duration": 2.3999999999999986,
          "durationTicks": 1920,
          "midi": 55,
          "name": "G3",
          "ticks": 14400,
          "time": 18,
          "velocity": 0.6141732283464567
        },
        {
          "duration": 0.6000000000000014,
          "durationTicks": 480,
          "midi": 48,
          "name": "C3",
          "ticks": 16320,
          "time": 20.4,
          "velocity": 0.5275590551181102
        },
        {
          "duration": 0.5999999999999979,
          "durationTicks": 480,
          "midi": 48,
          "name": "C3",
          "ticks": 16800,
          "time": 21,
          "velocity": 0.6062992125984252
        },
        {
          "duration": 1.2000000000000028,
          "durationTicks": 960,
          "midi": 48,
          "name": "C3",
          "ticks": 17280,
          "time": 21.599999999999998,
          "velocity": 0.6062992125984252
        },
        {
          "duration": 1.1999999999999993,
          "durationTicks": 960,
          "midi": 52,
          "name": "E3",
          "ticks": 18240,
          "time": 22.8,
          "velocity": 0.6220472440944882
        },
        {
          "duration": 1.1999999999999993,
          "durationTicks": 960,
          "midi": 55,
          "name": "G3",
          "ticks": 19200,
          "time": 24,
          "velocity": 0.6535433070866141
        },
        {
          "duration": 2.3999999999999986,
          "durationTicks": 1920,
          "midi": 60,
          "name": "C4",
          "ticks": 20160,
          "time": 25.2,
          "velocity": 0.6850393700787402
        }
      ],
      "endOfTrackTicks": 22081
    }
  ]
}
