{
  "header": {
    "keySignatures": [
      {
        "key": "C",
        "scale": "major",
        "ticks": 0
      }
    ],
    "meta": [],
    "name": "M15TIP",
    "ppq": 960,
    "tempos": [
      {
        "bpm": 50,
        "ticks": 0
      }
    ],
    "timeSignatures": [
      {
        "ticks": 0,
        "timeSignature": [
          4,
          4
        ],
        "measures": 0
      }
    ]
  },
  "tracks": [
    {
      "channel": 0,
      "controlChanges": {
        "7": [
          {
            "number": 7,
            "ticks": 0,
            "time": 0,
            "value": 0.7874015748031497
          }
        ],
        "10": [
          {
            "number": 10,
            "ticks": 0,
            "time": 0,
            "value": 0.5039370078740157
          }
        ],
        "64": [
          {
            "number": 64,
            "ticks": 0,
            "time": 0,
            "value": 0
          }
        ],
        "91": [
          {
            "number": 91,
            "ticks": 0,
            "time": 0,
            "value": 0.3779527559055118
          }
        ],
        "121": [
          {
            "number": 121,
            "ticks": 0,
            "time": 0,
            "value": 0
          }
        ]
      },
      "pitchBends": [],
      "instrument": {
        "family": "piano",
        "name": "acoustic grand piano",
        "number": 0
      },
      "name": "Acoustic Guitar",
      "notes": [
        {
          "duration": 0.6,
          "durationTicks": 480,
          "midi": 55,
          "name": "G3",
          "ticks": 0,
          "time": 0,
          "velocity": 0.5354330708661418
        },
        {
          "duration": 0.6,
          "durationTicks": 480,
          "midi": 55,
          "name": "G3",
          "ticks": 480,
          "time": 0.6,
          "velocity": 0.5748031496062992
        },
        {
          "duration": 0.6000000000000001,
          "durationTicks": 480,
          "midi": 60,
          "name": "C4",
          "ticks": 1920,
          "time": 2.4,
          "velocity": 0.5039370078740157
        },
        {
          "duration": 0.5999999999999996,
          "durationTicks": 480,
          "midi": 60,
          "name": "C4",
          "ticks": 2400,
          "time": 3,
          "velocity": 0.5826771653543307
        },
        {
          "duration": 0.5999999999999996,
          "durationTicks": 480,
          "midi": 60,
          "name": "C4",
          "ticks": 3840,
          "time": 4.8,
          "velocity": 0.5433070866141733
        },
        {
          "duration": 0.6000000000000005,
          "durationTicks": 480,
          "midi": 48,
          "name": "C3",
          "ticks": 4320,
          "time": 5.3999999999999995,
          "velocity": 0.5039370078740157
        },
        {
          "duration": 0.6000000000000005,
          "durationTicks": 480,
          "midi": 43,
          "name": "G2",
          "ticks": 5760,
          "time": 7.199999999999999,
          "velocity": 0.5826771653543307
        },
        {
          "duration": 0.6000000000000005,
          "durationTicks": 480,
          "midi": 48,
          "name": "C3",
          "ticks": 6240,
          "time": 7.8,
          "velocity": 0.6535433070866141
        },
        {
          "duration": 0.5999999999999996,
          "durationTicks": 480,
          "midi": 48,
          "name": "C3",
          "ticks": 7680,
          "time": 9.6,
          "velocity": 0.5196850393700787
        },
        {
          "duration": 0.5999999999999996,
          "durationTicks": 480,
          "midi": 60,
          "name": "C4",
          "ticks": 8160,
          "time": 10.2,
          "velocity": 0.7322834645669292
        },
        {
          "duration": 0.5999999999999996,
          "durationTicks": 480,
          "midi": 67,
          "name": "G4",
          "ticks": 9600,
          "time": 12,
          "velocity": 0.5275590551181102
        },
        {
          "duration": 0.5999999999999996,
          "durationTicks": 480,
          "midi": 60,
          "name": "C4",
          "ticks": 10080,
          "time": 12.6,
          "velocity": 0.5275590551181102
        },
        {
          "duration": 1.200000000000001,
          "durationTicks": 960,
          "midi": 64,
          "name": "E4",
          "ticks": 11520,
          "time": 14.399999999999999,
          "velocity": 0.5433070866141733
        },
        {
          "duration": 1.200000000000001,
          "durationTicks": 960,
          "midi": 48,
          "name": "C3",
          "ticks": 12480,
          "time": 15.6,
          "velocity": 0.5354330708661418
        },
        {
          "duration": 2.3999999999999986,
          "durationTicks": 1920,
          "midi": 60,
          "name": "C4",
          "ticks": 13440,
          "time": 16.8,
          "velocity": 0.7401574803149606
        },
        {
          "duration": 1.1999999999999993,
          "durationTicks": 960,
          "midi": 43,
          "name": "G2",
          "ticks": 15360,
          "time": 19.2,
          "velocity": 0.5433070866141733
        },
        {
          "duration": 1.1999999999999993,
          "durationTicks": 960,
          "midi": 48,
          "name": "C3",
          "ticks": 19200,
          "time": 24,
          "velocity": 0.5196850393700787
        },
        {
          "duration": 1.1999999999999993,
          "durationTicks": 960,
          "midi": 55,
          "name": "G3",
          "ticks": 20160,
          "time": 25.2,
          "velocity": 0.6299212598425197
        },
        {
          "duration": 1.1999999999999993,
          "durationTicks": 960,
          "midi": 55,
          "name": "G3",
          "ticks": 22080,
          "time": 27.599999999999998,
          "velocity": 0.5196850393700787
        },
        {
          "duration": 2.400000000000002,
          "durationTicks": 1920,
          "midi": 55,
          "name": "G3",
          "ticks": 23040,
          "time": 28.799999999999997,
          "velocity": 0.5511811023622047
        },
        {
          "duration": 2.3999999999999986,
          "durationTicks": 1920,
          "midi": 55,
          "name": "G3",
          "ticks": 26880,
          "time": 33.6,
          "velocity": 0.5196850393700787
        }
      ],
      "endOfTrackTicks": 28801
    }
  ]
}
