[gd_resource type="StyleBoxFlat" format=2]

[resource]
bg_color = Color( 0.858824, 0.172549, 0.462745, 1 )
border_width_left = 5
border_width_top = 5
border_width_right = 5
border_width_bottom = 5
border_color = Color( 0.623529, 0.133333, 0.341176, 1 )
corner_radius_top_left = 20
corner_radius_top_right = 20
corner_radius_bottom_right = 20
corner_radius_bottom_left = 20
